COMPSCIX 415.2 Homework 6
…
## [1] 2.081635

4.)

mean_samp <- rep(NA, 10000)

for(i in 1:10000) {
g_samp <- rgamma(30, shape = 1, scale = 2)
mean_samp[i] <- mean(g_samp)
}

(mean_samp <- tibble(mean_samp))

## # A tibble: 10,000 x 1
##    mean_samp
##        <dbl>
##  1      1.58
##  2      2.33
##  3      1.80
##  4      1.74
##  5      1.47
##  6      1.66
##  7      2.03
##  8      2.16
##  9      1.59
## 10      2.52
## # ... with 9,990 more rows

5.)

mean_samp <- rep(NA, 10000)

for(i in 1:10000) {
g_samp <- rgamma(30, shape = 1, scale = 2)
mean_samp[i] <- mean(g_samp)
}

(mean_samp <- tibble(mean_samp))

## # A tibble: 10,000 x 1
##    mean_samp
##        <dbl>
##  1      1.61
##  2      1.66
##  3      2.09
##  4      1.48
##  5      1.94
##  6      2.21
##  7      2.43
##  8      2.65
##  9      1.63
## 10      2.20
## # ... with 9,990 more rows
…
7.) The surprising part of exercise 6 is the standard deviation of ~.36 in comparison to the previously calculated standard deviation which was close to 2 when taking the sample mean wasnt repeated 10k times.

8.) The results align well with the central limit theorem as increasing the sample size reduces the standard deviation from the sample means.

mean_samp <- rep(NA, 10000)

for(i in 1:10000) {
g_samp <- rgamma(300, shape = 1, scale = 2)
mean_samp[i] <- mean(g_samp)
}

(mean_samp <- tibble(mean_samp))

## # A tibble: 10,000 x 1
##    mean_samp
##        <dbl>
##  1      1.88
##  2      2.02
##  3      1.87
##  4      1.88
##  5      1.97
##  6      2.08
##  7      2.02
##  8      1.90
##  9      2.01
## 10      2.04
## # ... with 9,990 more rows
…
