COMPSCIX 415.2 Homework 5/Midterm
…
2.)

diamonds %>% 
  mutate(price_per_carat = price/carat)

## # A tibble: 53,940 x 11
##    carat cut       color clarity depth table price     x     y     z
##    <dbl> <ord>     <ord> <ord>   <dbl> <dbl> <int> <dbl> <dbl> <dbl>
##  1 0.230 Ideal     E     SI2      61.5  55.0   326  3.95  3.98  2.43
##  2 0.210 Premium   E     SI1      59.8  61.0   326  3.89  3.84  2.31
##  3 0.230 Good      E     VS1      56.9  65.0   327  4.05  4.07  2.31
##  4 0.290 Premium   I     VS2      62.4  58.0   334  4.20  4.23  2.63
##  5 0.310 Good      J     SI2      63.3  58.0   335  4.34  4.35  2.75
##  6 0.240 Very Good J     VVS2     62.8  57.0   336  3.94  3.96  2.48
##  7 0.240 Very Good I     VVS1     62.3  57.0   336  3.95  3.98  2.47
##  8 0.260 Very Good H     SI1      61.9  55.0   337  4.07  4.11  2.53
##  9 0.220 Fair      E     VS2      65.1  61.0   337  3.87  3.78  2.49
## 10 0.230 Very Good H     VS1      59.4  61.0   338  4.00  4.05  2.39
## # ... with 53,930 more rows, and 1 more variable: price_per_carat <dbl>
…
txhousing %>% summarize(cities = n_distinct(city))

## # A tibble: 1 x 1
##   cities
##    <int>
## 1     46

3.) Houston had the highest sales among cities.

txhousing %>% group_by(city) %>% 
  summarize(total_sales = sum(sales, na.rm = TRUE)) %>% 
  arrange(desc(total_sales))

## # A tibble: 46 x 2
##    city              total_sales
##    <chr>                   <dbl>
##  1 Houston               1043999
##  2 Dallas                 816122
##  3 Austin                 373381
##  4 San Antonio            322097
##  5 Collin County          202892
##  6 Fort Bend              153088
##  7 Fort Worth             144791
##  8 NE Tarrant County      128007
##  9 Denton County          117405
## 10 Montgomery County      104589
## # ... with 36 more rows
…
5.)

txhousing %>% 
  group_by(city) %>% 
  summarize(prop_missing = sum(is.na(sales)/n())) %>% 
  arrange(desc(prop_missing))

## # A tibble: 46 x 2
##    city               prop_missing
##    <chr>                     <dbl>
##  1 South Padre Island       0.620 
##  2 Kerrville                0.556 
##  3 Midland                  0.401 
##  4 Odessa                   0.385 
##  5 San Marcos               0.246 
##  6 Laredo                   0.193 
##  7 Harlingen                0.134 
##  8 Waco                     0.102 
##  9 Texarkana                0.0909
## 10 Brazoria County          0.0749
## # ... with 36 more rows
…
